"Staff Details "

"Appointment number","Staff Name",Gender,"Date of Birth","Date of Joining",Status,Email,loginid,Password
globale0001,SAM,Male,10-12-1989,01-02-2010,Appointed,eglobale0001@abcd.edusparrow.com,eglobale0001,10/12/1989
globale0002,SAN,Female,10-12-1989,01-02-2010,Appointed,eglobale0002@abcd.edusparrow.com,eglobale0002,10/12/1989
