
"Student Details "
"Admission number","Student Name",Gender,"Date of Birth","Date of Joining",Status,Email,loginid,Password
globals00015,Mani,Male,01-01-2000,01-01-2016,Inclass,sglobals00015@abcd.edusparrow.com,sglobals00015,01/01/2000
globals00019,Senthil,Male,01-01-2000,01-01-2016,Inclass,sglobals00019@abcd.edusparrow.com,sglobals00019,01/01/2000
globals00018,Shalini,Female,01-01-2000,01-01-2016,Inclass,sglobals00018@abcd.edusparrow.com,sglobals00018,01/01/2000
globals00020,Susila,Female,01-01-2000,01-01-2016,Inclass,sglobals00020@abcd.edusparrow.com,sglobals00020,01/01/2000
globals00014,Uma,Female,01-01-2000,01-01-2016,Inclass,sglobals00014@abcd.edusparrow.com,sglobals00014,01/01/2000
globals00017,Wilson,Male,01-01-2000,01-01-2016,Inclass,sglobals00017@abcd.edusparrow.com,sglobals00017,01/01/2000
