"Student Name","Admission No","Application No","Date of Birth",Gender,"Academic year",Grade,Section,Group,Language,"Student Login","Parent Login","Date Of Joining","Father Name","Father Occupation","Father Designation","Father Phone No","Father Phone No Status","Father Education","Mother Name","Mother Occupation","Mother Designation","Mother Phone No","Mother Phone No Status","Mother Education","Other Guardian Name","Guardian Occupation","Guardian Designation","Guardian Phone No","Guardian Phone No Status","Family Income","Family Doctor",Address1,Address2,State,Country,Pin,Phone,Email,"Edusparrow Email","Place of Birth",Nationality,Religion,"Caste Category",Caste,"First Language","Person School Fee",Circumtances,Sibling,"Blood Group",Height,Weight,Allergic,Chronic,"Previous School Name","Previous School State","Previous School Country","Attended From","Attended To",Achievements,Comments,"Other Details",Transport,Status
Angela,edu00007,-,07-08-2010,Female,2016-2017,UKG,-,-,"Language combination 1 (1-2)",sedu00007,pedu00007,07-01-2016,-,-,-,-,-,-,-,-,-,-,-,-,-,-,-,-,-,-,-,-,-,-,-,-,98432580198,sedu00007@schoolapp.edusparrow.com,sedu00007@schoolapp.edusparrow.com,-,-,-,-,-,-,-,-,-,-,-,-,-,-,-,-,-,-,-,-,-,-,-,Inclass
Angela,edu00037,-,07-08-2010,Female,2016-2017,"Grade - XI",A,Comp.Sci,"L2 Tamil",sedu00037,pedu00037,07-01-2016,-,-,-,-,-,-,-,-,-,-,-,-,-,-,-,-,-,0.00,-,"30 A H. A. K . Road , Chinnachokkikulam",Madurai,"Tamil Nadu",India,625002,8925849454,selvaa2882@gmail.com,sedu00037@schoolapp.edusparrow.com,-,-,-,-,-,-,-,-,-,-,-,-,-,-,-,-,-,-,-,-,-,-,-,Inclass
Angela,edu00067,-,07-08-2010,Female,2016-2017,"Grade - XI",C,Accounts,"L2 Tamil",sedu00067,pedu00067,07-01-2016,-,-,-,-,-,-,-,-,-,-,-,-,-,-,-,-,-,-,-,-,-,-,-,-,-,-,sedu00067@schoolapp.edusparrow.com,-,-,-,-,-,-,-,-,-,-,-,-,-,-,-,-,-,-,-,-,-,-,-,Inclass
Angela,edu00027,-,07-08-2010,Female,2016-2017,"Grade - IX",A,-,"Language combination 1 (1-2)",sedu00027,pedu00027,07-01-2016,-,-,-,9843258019,-,-,-,-,-,9843258019,-,-,-,-,-,8925849454,-,0.00,-,"7/15, plot 4, thedral nagar, ganapathy nagar, new vilangudi","7/15, plot 4, thedral nagar, ganapathy nagar, new vilangudi","Tamil Nadu",-,625018,9551552141,sankareswarikarthikeyan@gmail.com,sedu00027@schoolapp.edusparrow.com,-,-,-,-,-,-,-,-,-,-,-,-,-,-,-,-,-,-,-,-,-,-,-,Inclass
Angela,edu00057,-,07-08-2010,Female,2016-2017,"Grade - XI",B,"Bio Med","L2 Tamil",sedu00057,pedu00057,07-01-2016,-,-,-,-,-,-,-,-,-,-,-,-,-,-,-,-,-,-,-,-,-,-,-,-,-,-,sedu00057@schoolapp.edusparrow.com,-,-,-,-,-,-,-,-,-,-,-,-,-,-,-,-,-,-,-,-,-,-,-,Inclass
Angela,edu00047,-,07-08-2010,Female,2016-2017,"Grade - XI",B,"Bio Maths","L2 Tamil",sedu00047,pedu00047,07-01-2016,-,-,-,-,-,-,-,-,-,-,-,-,-,-,-,-,-,-,-,-,-,-,-,-,-,-,sedu00047@schoolapp.edusparrow.com,-,-,-,-,-,-,-,-,-,-,-,-,-,-,-,-,-,-,-,-,-,-,-,Inclass
Angela,edu00017,-,07-08-2010,Female,2016-2017,"Grade - V",A,-,"Language combination 1 (1-2-3)",sedu00017,pedu00017,07-01-2016,-,-,-,-,-,-,-,-,-,-,-,-,-,-,-,-,-,0.00,-,"Address 1","Address 2",Tamilnadu,India,625002,9952844950,selvaa2882@gmail.com,sedu00017@schoolapp.edusparrow.com,-,-,-,-,-,-,-,-,-,-,-,-,-,-,-,-,-,-,-,-,-,-,Yes,Inclass
Diana,edu00056,-,07-01-2010,Female,2016-2017,"Grade - XI",B,"Bio Med","L2 Tamil",sedu00056,pedu00056,06-01-2016,-,-,-,-,-,-,-,-,-,-,-,-,-,-,-,-,-,-,-,-,-,-,-,-,-,-,sedu00056@schoolapp.edusparrow.com,-,-,-,-,-,-,-,-,-,-,-,-,-,-,-,-,-,-,-,-,-,-,-,Inclass
Diana,edu00016,-,07-01-2010,Female,2016-2017,"Grade - V",A,-,"Language combination 1 (1-2-3)",sedu00016,pedu00016,06-01-2016,-,-,-,-,-,-,-,-,-,-,-,-,-,-,-,-,-,-,-,-,-,-,-,-,-,-,sedu00016@schoolapp.edusparrow.com,-,-,-,-,-,-,-,-,-,-,-,-,-,-,-,-,-,-,-,-,-,-,-,Inclass
Diana,edu00046,-,07-01-2010,Female,2016-2017,"Grade - XI",B,"Bio Maths","L2 Tamil",sedu00046,pedu00046,06-01-2016,-,-,-,-,-,-,-,-,-,-,-,-,-,-,-,-,-,-,-,-,-,-,-,-,-,-,sedu00046@schoolapp.edusparrow.com,-,-,-,-,-,-,-,-,-,-,-,-,-,-,-,-,-,-,-,-,-,-,-,Inclass
Diana,edu00006,-,07-01-2010,Female,2016-2017,UKG,-,-,"Language combination 1 (1-2)",sedu00006,pedu00006,06-01-2016,-,-,-,-,-,-,-,-,-,-,-,-,-,-,-,-,-,-,-,-,-,-,-,-,-,sedu00006@schoolapp.edusparrow.com,sedu00006@schoolapp.edusparrow.com,-,-,-,-,-,-,-,-,-,-,-,-,-,-,-,-,-,-,-,-,-,-,-,Inclass
Diana,edu00036,-,07-01-2010,Female,2016-2017,"Grade - XI",A,Comp.Sci,"L2 Tamil",sedu00036,pedu00036,06-01-2016,"Sankaravel Sankaravel","State Bank Of India State Bank Of India","Manager Manager Mangar Mangar",1234578608,Primary,"Doctor Doctor doctor doctor","Susila devi Susila devi","House wife House wife House wife House wife House ","House wife House wife House wife House wife House ",2346421341,Secondary,"House wife House wife House wife House wife House wife House wife ","Durai Pandian Durai Pandian Durai Pandian Durai Pa","Formar Formar Formar Formar Formar Formar Formar ","Formar Formar Formar Formar Formar Formar ",1646166131,Secondary,100000000.00,"ur weirghewir worhwo rghwreoig worg werogfn wori qwerf wergk wre weorg werokwer gwert vsfiojeor sfv eorg wegwerg wofnw krgweur weirghewir worhwo rghwreoig worg werogfn wori qwerf wergk wre weorg werokwer gwert vsfiojeor sfv eorg ergowergn rg wegwerg wofnw krgweur weirghewir worhwo rghwreoig worg werogfn wori qwerf wergk wre weorg werokwer gwert vsfiojeor sfv eorg ergowergn rg wegwerg wofnw krgweur weirghewir worhwo rghwreoig worg werogfn wori qwerf wergk wre weorg werokwer gwert vsfiojeor sfv eo","South Veli Street, North Block","Tamil Nadu Tamil Nadu","Tamil Nadu Tamil Nadu","Heard Island and McDonald Islands",6254800641,9551552141,selvakumarsankaravel@nativesparrow.com,sedu00036@schoolapp.edusparrow.com,"Madurai Madurai Madurai","Heard Island and McDonald Islands","Hindu Christian Musl","Christian Muslim Par","Muslim Parsi Hindu Christian ","Tamil English Kannda","Sankaravel Sankaravel Sankaravel Sankaravel Sankaravel Sankaravel Sankaravel Sankaravel ","adf adfasd oasdfaos dfoasiefda sdovjaweufwaef 9awudfa d9fuawye9rfhaqsd va9ery9aefn alsdfna oweugfa sdnvaiosduf9awefna sdfvauwe9yrqa98rhfaqsdvn 9efyweifnasdf n9awefawoejfaw eofh qweofnaqwefaq","asfasdf aodf asofyuwaefjna sdfnaweufnasd fna9weufhweaknf oaufh oajdfhoaisfuhaweir jaojd fiauehfawefa",O-,150,80,"adsfasdf aodsfna sdfaewfj asdf9uawefaxd fauefasld vaisdufakwdf asdfasdfawgeifadf asdfaefdavfgafgaefgasgfasgvadf srdgafgwergasdbfersgzsdty xfgeryksxwefb aisdbf iaweyfwfd i","asdfv bweifu asd ifaeifbasdlfe ofj eofq9eruf sdfnueyr98hgb qwieruh3 fofh34r ofher oerghoerh qewq9hfqof eorfhwerjgwergherogjwerohgw 0wergqeorfhweorg woerhgoqehr928thnoifjlqwe fqoerhqo fqoerhoergnw gwehrtow fgw9rtwo v9werhgowerngf werghweogn werihwenlg werihewr wergiuwehgwog weuthwegwer wrgwrregt","Pandian Saravathi school Pandian Saravathi school ","Tamil nadu Tamil nad","Heard Island and McDonald Islands",01-04-2016,29-04-2016,"ur weirghewir worhwo rghwreoig worg werogfn wori qwerf wergk wre weorg werokwer gwert vsfiojeor sfv eorg wegwerg wofnw krgweur weirghewir worhwo rghwreoig worg werogfn wori qwerf wergk wre weorg werokwer gwert vsfiojeor sfv eorg ergowergn rg wegwerg wofnw krgweur weirghewir worhwo rg","ur weirghewir worhwo rghwreoig worg werogfn wori qwerf wergk wre weorg werokwer gwert vsfiojeor sfv eorg wegwerg wofnw krgweur weirghewir worhwo rghwreoig worg werogfn wori qwerf wergk wre weorg werokwer gwert vsfiojeor sfv eorg ergowergn rg wegwerg wofnw krgweur weirghewir worhwo rg","ur weirghewir worhwo rghwreoig worg werogfn wori qwerf wergk wre weorg werokwer gwert vsfiojeor sfv eorg wegwerg wofnw krgweur weirghewir worhwo rghwreoig worg werogfn wori qwerf wergk wre weorg werokwer gwert vsfiojeor sfv eorg ergowergn rg wegwerg wofnw krgweur weirghewir worhwo rg",-,Inclass
Diana,edu00066,-,07-01-2010,Female,2016-2017,"Grade - XI",C,Accounts,"L2 Tamil",sedu00066,pedu00066,06-01-2016,-,-,-,-,-,-,-,-,-,-,-,-,-,-,-,-,-,-,-,-,-,-,-,-,-,-,sedu00066@schoolapp.edusparrow.com,-,-,-,-,-,-,-,-,-,-,-,-,-,-,-,-,-,-,-,-,-,-,-,Inclass
Diana,edu00026,-,07-01-2010,Female,2016-2017,"Grade - IX",A,-,"Language combination 2 (1-2)",sedu00026,pedu00026,06-01-2016,-,-,-,-,-,-,-,-,-,-,-,-,-,-,-,-,-,-,-,-,-,-,-,-,-,-,sedu00026@schoolapp.edusparrow.com,-,-,-,-,-,-,-,-,-,-,-,-,-,-,-,-,-,-,-,-,-,-,-,Inclass
Emma,edu00010,-,07-01-2010,Female,2016-2017,UKG,-,-,"Language combination 1 (1-2)",sedu00010,pedu00010,06-01-2016,-,-,-,-,-,-,-,-,-,-,-,-,-,-,-,-,-,-,-,-,-,-,-,-,-,sedu00010@schoolapp.edusparrow.com,sedu00010@schoolapp.edusparrow.com,-,-,-,-,-,-,-,-,-,-,-,-,-,-,-,-,-,-,-,-,-,-,-,Inclass
Emma,edu00040,-,07-01-2010,Female,2016-2017,"Grade - XI",A,Comp.Sci,"L2 French",sedu00040,pedu00040,06-01-2016,-,-,-,-,-,-,-,-,-,-,-,-,-,-,-,-,-,0.00,-,"address 1","address 2","Tamil Nadu",India,625002,9843258019,selvaa2882@gmail.com,sedu00040@schoolapp.edusparrow.com,-,-,-,-,-,-,-,-,-,-,-,-,-,-,-,-,-,-,-,-,-,-,-,Inclass
Emma,edu00070,-,07-01-2010,Female,2016-2017,"Grade - XI",C,Accounts,"L2 Tamil",sedu00070,pedu00070,06-01-2016,-,-,-,-,-,-,-,-,-,-,-,-,-,-,-,-,-,-,-,-,-,-,-,-,-,-,sedu00070@schoolapp.edusparrow.com,-,-,-,-,-,-,-,-,-,-,-,-,-,-,-,-,-,-,-,-,-,-,-,Inclass
Emma,edu00030,-,07-01-2010,Female,2016-2017,"Grade - IX",A,-,"Language combination 3 (1-2)",sedu00030,pedu00030,06-01-2016,-,-,-,-,-,-,-,-,-,-,-,-,-,-,-,-,-,-,-,-,-,-,-,-,-,-,sedu00030@schoolapp.edusparrow.com,-,-,-,-,-,-,-,-,-,-,-,-,-,-,-,-,-,-,-,-,-,-,-,Inclass
Emma,edu00060,-,07-01-2010,Female,2016-2017,"Grade - XI",B,"Bio Med","L2 Tamil",sedu00060,pedu00060,06-01-2016,-,-,-,-,-,-,-,-,-,-,-,-,-,-,-,-,-,-,-,-,-,-,-,-,-,-,sedu00060@schoolapp.edusparrow.com,-,-,-,-,-,-,-,-,-,-,-,-,-,-,-,-,-,-,-,-,-,-,-,Inclass
Emma,edu00020,-,07-01-2010,Female,2016-2017,"Grade - V",A,-,"Language combination 2 (1-2-3)",sedu00020,pedu00020,06-01-2016,-,-,-,-,-,-,-,-,-,-,-,-,-,-,-,-,-,-,-,-,-,-,-,-,-,-,sedu00020@schoolapp.edusparrow.com,-,-,-,-,-,-,-,-,-,-,-,-,-,-,-,-,-,-,-,-,-,-,-,Inclass
Emma,edu00050,-,07-01-2010,Female,2016-2017,"Grade - XI",B,"Bio Maths","L2 Tamil",sedu00050,pedu00050,06-01-2016,-,-,-,-,-,-,-,-,-,-,-,-,-,-,-,-,-,-,-,-,-,-,-,-,-,-,sedu00050@schoolapp.edusparrow.com,-,-,-,-,-,-,-,-,-,-,-,-,-,-,-,-,-,-,-,-,-,-,-,Inclass
Isabella,edu00049,-,05-07-2010,Female,2016-2017,"Grade - XI",B,"Bio Maths","L2 Tamil",sedu00049,pedu00049,09-01-2016,-,-,-,-,-,-,-,-,-,-,-,-,-,-,-,-,-,-,-,-,-,-,-,-,-,-,sedu00049@schoolapp.edusparrow.com,-,-,-,-,-,-,-,-,-,-,-,-,-,-,-,-,-,-,-,-,-,-,-,Inclass
Isabella,edu00019,-,05-07-2010,Female,2016-2017,"Grade - V",A,-,"Language combination 2 (1-2-3)",sedu00019,pedu00019,09-01-2016,-,-,-,-,-,-,-,-,-,-,-,-,-,-,-,-,-,-,-,-,-,-,-,-,-,-,sedu00019@schoolapp.edusparrow.com,-,-,-,-,-,-,-,-,-,-,-,-,-,-,-,-,-,-,-,-,-,-,-,Inclass
Isabella,edu00009,-,05-07-2010,Female,2016-2017,UKG,-,-,"Language combination 1 (1-2)",sedu00009,pedu00009,09-01-2016,-,-,-,-,-,-,-,-,-,-,-,-,-,-,-,-,-,-,-,-,-,-,-,-,-,sedu00009@schoolapp.edusparrow.com,sedu00009@schoolapp.edusparrow.com,-,-,-,-,-,-,-,-,-,-,-,-,-,-,-,-,-,-,-,-,-,-,-,Inclass
Isabella,edu00039,-,05-07-2010,Female,2016-2017,"Grade - XI",A,Comp.Sci,"L2 French",sedu00039,pedu00039,09-01-2016,-,-,-,-,-,-,-,-,-,-,-,-,-,-,-,-,-,-,-,-,-,-,-,-,-,-,sedu00039@schoolapp.edusparrow.com,-,-,-,-,-,-,-,-,-,-,-,-,-,-,-,-,-,-,-,-,-,-,-,Inclass
Isabella,edu00069,-,05-07-2010,Female,2016-2017,"Grade - XI",C,Accounts,"L2 Tamil",sedu00069,pedu00069,09-01-2016,-,-,-,-,-,-,-,-,-,-,-,-,-,-,-,-,-,-,-,-,-,-,-,-,-,-,sedu00069@schoolapp.edusparrow.com,-,-,-,-,-,-,-,-,-,-,-,-,-,-,-,-,-,-,-,-,-,-,-,Inclass
Isabella,edu00029,-,05-07-2010,Female,2016-2017,"Grade - IX",A,-,"Language combination 4 (1-2)",sedu00029,pedu00029,09-01-2016,-,-,-,-,-,-,-,-,-,-,-,-,-,-,-,-,-,-,-,-,-,-,-,-,-,-,sedu00029@schoolapp.edusparrow.com,-,-,-,-,-,-,-,-,-,-,-,-,-,-,-,-,-,-,-,-,-,-,-,Inclass
Isabella,edu00059,-,05-07-2010,Female,2016-2017,"Grade - XI",B,"Bio Med","L2 Tamil",sedu00059,pedu00059,09-01-2016,-,-,-,-,-,-,-,-,-,-,-,-,-,-,-,-,-,-,-,-,-,-,-,-,-,-,sedu00059@schoolapp.edusparrow.com,-,-,-,-,-,-,-,-,-,-,-,-,-,-,-,-,-,-,-,-,-,-,-,Inclass
John,edu00032,-,04-07-2010,Male,2016-2017,"Grade - XI",A,Comp.Sci,"L2 Tamil",sedu00032,pedu00032,02-01-2016,-,-,-,-,-,-,-,-,-,-,-,-,-,-,-,-,-,-,-,-,-,-,-,-,-,-,sedu00032@schoolapp.edusparrow.com,-,-,-,-,-,-,-,-,-,-,-,-,-,-,-,-,-,-,-,-,-,-,-,Inclass
John,edu00002,-,04-07-2010,Male,2016-2017,UKG,-,-,"Language combination 1 (1-2)",sedu00002,pedu00002,02-01-2016,-,-,-,-,-,-,-,-,-,-,-,-,-,-,-,-,-,-,-,-,-,-,-,-,-,sedu00002@schoolapp.edusparrow.com,sedu00002@schoolapp.edusparrow.com,-,-,-,-,-,-,-,-,-,-,-,-,-,-,-,-,-,-,-,-,-,-,-,Inclass
John,edu00062,-,04-07-2010,Male,2016-2017,"Grade - XI",C,Accounts,"L2 Tamil",sedu00062,pedu00062,02-01-2016,-,-,-,-,-,-,-,-,-,-,-,-,-,-,-,-,-,-,-,-,-,-,-,-,-,-,sedu00062@schoolapp.edusparrow.com,-,-,-,-,-,-,-,-,-,-,-,-,-,-,-,-,-,-,-,-,-,-,-,Inclass
John,edu00022,-,04-07-2010,Male,2016-2017,"Grade - IX",B,-,"Language combination 1 (1-2)",sedu00022,pedu00022,02-01-2016,-,-,-,-,-,-,-,-,-,-,-,-,-,-,-,-,-,-,-,-,-,-,-,-,-,-,sedu00022@schoolapp.edusparrow.com,-,-,-,-,-,-,-,-,-,-,-,-,-,-,-,-,-,-,-,-,-,-,-,Inclass
John,edu00052,-,04-07-2010,Male,2016-2017,"Grade - XI",B,"Bio Med","L2 Tamil",sedu00052,pedu00052,02-01-2016,-,-,-,-,-,-,-,-,-,-,-,-,-,-,-,-,-,-,-,-,-,-,-,-,-,-,sedu00052@schoolapp.edusparrow.com,-,-,-,-,-,-,-,-,-,-,-,-,-,-,-,-,-,-,-,-,-,-,-,Inclass
John,edu00012,-,04-07-2010,Male,2016-2017,"Grade - V",A,-,"Language combination 3 (1-2-3)",sedu00012,pedu00012,02-01-2016,-,-,-,-,-,-,-,-,-,-,-,-,-,-,-,-,-,-,-,-,-,-,-,-,-,-,sedu00012@schoolapp.edusparrow.com,-,-,-,-,-,-,-,-,-,-,-,-,-,-,-,-,-,-,-,-,-,-,-,Inclass
John,edu00042,-,04-07-2010,Male,2016-2017,"Grade - XI",B,"Bio Maths","L2 Tamil",sedu00042,pedu00042,02-01-2016,-,-,-,-,-,-,-,-,-,-,-,-,-,-,-,-,-,-,-,-,-,-,-,-,-,-,sedu00042@schoolapp.edusparrow.com,-,-,-,-,-,-,-,-,-,-,-,-,-,-,-,-,-,-,-,-,-,-,-,Inclass
Mary,edu00028,-,01-10-2010,Female,2016-2017,"Grade - IX",B,-,"Language combination 2 (1-2)",sedu00028,pedu00028,08-01-2016,-,-,-,-,-,-,-,-,-,-,-,-,-,-,-,-,-,-,-,-,-,-,-,-,-,-,sedu00028@schoolapp.edusparrow.com,-,-,-,-,-,-,-,-,-,-,-,-,-,-,-,-,-,-,-,-,-,-,-,Inclass
Mary,edu00058,-,01-10-2010,Female,2016-2017,"Grade - XI",B,"Bio Med","L2 French",sedu00058,pedu00058,08-01-2016,-,-,-,-,-,-,-,-,-,-,-,-,-,-,-,-,-,-,-,-,-,-,-,-,-,-,sedu00058@schoolapp.edusparrow.com,-,-,-,-,-,-,-,-,-,-,-,-,-,-,-,-,-,-,-,-,-,-,-,Inclass
Mary,edu00048,-,01-10-2010,Female,2016-2017,"Grade - XI",B,"Bio Maths","L2 French",sedu00048,pedu00048,08-01-2016,-,-,-,-,-,-,-,-,-,-,-,-,-,-,-,-,-,-,-,-,-,-,-,-,-,-,sedu00048@schoolapp.edusparrow.com,-,-,-,-,-,-,-,-,-,-,-,-,-,-,-,-,-,-,-,-,-,-,-,Inclass
Mary,edu00018,-,01-10-2010,Female,2016-2017,"Grade - V",A,-,"Language combination 3 (1-2-3)",sedu00018,pedu00018,08-01-2016,-,-,-,-,-,-,-,-,-,-,-,-,-,-,-,-,-,-,-,-,-,-,-,-,-,-,sedu00018@schoolapp.edusparrow.com,-,-,-,-,-,-,-,-,-,-,-,-,-,-,-,-,-,-,-,-,-,-,-,Inclass
Mary,edu00008,-,01-10-2010,Female,2016-2017,UKG,-,-,"Language combination 2 (1-2)",sedu00008,pedu00008,08-01-2016,-,-,-,-,-,-,-,-,-,-,-,-,-,-,-,-,-,-,-,-,-,-,-,-,-,sedu00008@schoolapp.edusparrow.com,sedu00008@schoolapp.edusparrow.com,-,-,-,-,-,-,-,-,-,-,-,-,-,-,-,-,-,-,-,-,-,-,-,Inclass
Mary,edu00038,-,01-10-2010,Female,2016-2017,"Grade - XI",A,Comp.Sci,"L2 Tamil",sedu00038,pedu00038,08-01-2016,-,-,-,-,-,-,-,-,-,-,-,-,-,-,-,-,-,-,-,-,-,-,-,-,-,-,sedu00038@schoolapp.edusparrow.com,-,-,-,-,-,-,-,-,-,-,-,-,-,-,-,-,-,-,-,-,-,-,-,Inclass
Mary,edu00068,-,01-10-2010,Female,2016-2017,"Grade - XI",C,Accounts,"L2 French",sedu00068,pedu00068,08-01-2016,-,-,-,-,-,-,-,-,-,-,-,-,-,-,-,-,-,-,-,-,-,-,-,-,-,-,sedu00068@schoolapp.edusparrow.com,-,-,-,-,-,-,-,-,-,-,-,-,-,-,-,-,-,-,-,-,-,-,-,Inclass
Michael,edu00011,-,02-01-2010,Male,2016-2017,"Grade - V",A,-,"Language combination 4 (1-2-3)",sedu00011,pedu00011,01-01-2016,-,-,-,-,-,-,-,-,-,-,-,-,-,-,-,-,-,-,-,-,-,-,-,-,-,-,sedu00011@schoolapp.edusparrow.com,-,-,-,-,-,-,-,-,-,-,-,-,-,-,-,-,-,-,-,-,-,-,-,Inclass
Michael,edu00041,-,02-01-2010,Male,2016-2017,"Grade - XI",B,"Bio Maths","L2 French",sedu00041,pedu00041,01-01-2016,-,-,-,-,-,-,-,-,-,-,-,-,-,-,-,-,-,-,-,-,-,-,-,-,-,-,sedu00041@schoolapp.edusparrow.com,-,-,-,-,-,-,-,-,-,-,-,-,-,-,-,-,-,-,-,-,-,-,-,Inclass
Michael,edu00001,-,02-01-2010,Male,2016-2017,UKG,-,-,"Language combination 2 (1-2)",sedu00001,pedu00001,01-01-2016,-,-,-,-,-,-,-,-,-,-,-,-,-,-,-,-,-,-,-,-,-,-,-,-,-,sedu00001@schoolapp.edusparrow.com,sedu00001@schoolapp.edusparrow.com,-,-,-,-,-,-,-,-,-,-,-,-,-,-,-,-,-,-,-,-,-,-,-,Inclass
Michael,edu00031,-,02-01-2010,Male,2016-2017,"Grade - XI",A,Comp.Sci,"L2 French",sedu00031,pedu00031,01-01-2016,-,-,-,-,-,-,-,-,-,-,-,-,-,-,-,-,-,-,-,-,-,-,-,-,-,-,sedu00031@schoolapp.edusparrow.com,-,-,-,-,-,-,-,-,-,-,-,-,-,-,-,-,-,-,-,-,-,-,-,Inclass
Michael,edu00061,-,02-01-2010,Male,2016-2017,"Grade - XI",C,Accounts,"L2 French",sedu00061,pedu00061,01-01-2016,-,-,-,-,-,-,-,-,-,-,-,-,-,-,-,-,-,-,-,-,-,-,-,-,-,-,sedu00061@schoolapp.edusparrow.com,-,-,-,-,-,-,-,-,-,-,-,-,-,-,-,-,-,-,-,-,-,-,-,Inclass
Michael,edu00021,-,02-01-2010,Male,2016-2017,"Grade - IX",B,-,"Language combination 3 (1-2)",sedu00021,pedu00021,01-01-2016,-,-,-,-,-,-,-,-,-,-,-,-,-,-,-,-,-,-,-,-,-,-,-,-,-,-,sedu00021@schoolapp.edusparrow.com,-,-,-,-,-,-,-,-,-,-,-,-,-,-,-,-,-,-,-,-,-,-,-,Inclass
Michael,edu00051,-,02-01-2010,Male,2016-2017,"Grade - XI",B,"Bio Med","L2 French",sedu00051,pedu00051,01-01-2016,-,-,-,-,-,-,-,-,-,-,-,-,-,-,-,-,-,-,-,-,-,-,-,-,-,-,sedu00051@schoolapp.edusparrow.com,-,-,-,-,-,-,-,-,-,-,-,-,-,-,-,-,-,-,-,-,-,-,-,Inclass
Peter,edu00023,-,05-06-2010,Male,2016-2017,"Grade - IX",B,-,"Language combination 4 (1-2)",sedu00023,pedu00023,03-01-2016,-,-,-,-,-,-,-,-,-,-,-,-,-,-,-,-,-,-,-,-,-,-,-,-,-,-,sedu00023@schoolapp.edusparrow.com,-,-,-,-,-,-,-,-,-,-,-,-,-,-,-,-,-,-,-,-,-,-,-,Inclass
Peter,edu00053,-,05-06-2010,Male,2016-2017,"Grade - XI",B,"Bio Med","L2 French",sedu00053,pedu00053,03-01-2016,-,-,-,-,-,-,-,-,-,-,-,-,-,-,-,-,-,-,-,-,-,-,-,-,-,-,sedu00053@schoolapp.edusparrow.com,-,-,-,-,-,-,-,-,-,-,-,-,-,-,-,-,-,-,-,-,-,-,-,Inclass
Peter,edu00043,-,05-06-2010,Male,2016-2017,"Grade - XI",B,"Bio Maths","L2 French",sedu00043,pedu00043,03-01-2016,-,-,-,-,-,-,-,-,-,-,-,-,-,-,-,-,-,-,-,-,-,-,-,-,-,-,sedu00043@schoolapp.edusparrow.com,-,-,-,-,-,-,-,-,-,-,-,-,-,-,-,-,-,-,-,-,-,-,-,Inclass
Peter,edu00013,-,05-06-2010,Male,2016-2017,"Grade - V",A,-,"Language combination 4 (1-2-3)",sedu00013,pedu00013,03-01-2016,-,-,-,-,-,-,-,-,-,-,-,-,-,-,-,-,-,-,-,-,-,-,-,-,-,-,sedu00013@schoolapp.edusparrow.com,-,-,-,-,-,-,-,-,-,-,-,-,-,-,-,-,-,-,-,-,-,-,-,Inclass
Peter,edu00003,-,05-06-2010,Male,2016-2017,UKG,-,-,"Language combination 2 (1-2)",sedu00003,pedu00003,03-01-2016,-,-,-,-,-,-,-,-,-,-,-,-,-,-,-,-,-,-,-,-,-,-,-,-,-,sedu00003@schoolapp.edusparrow.com,sedu00003@schoolapp.edusparrow.com,-,-,-,-,-,-,-,-,-,-,-,-,-,-,-,-,-,-,-,-,-,-,-,Inclass
Peter,edu00033,-,05-06-2010,Male,2016-2017,"Grade - XI",A,Comp.Sci,"L2 French",sedu00033,pedu00033,03-01-2016,-,-,-,-,-,-,-,-,-,-,-,-,-,-,-,-,-,-,-,-,-,-,-,-,-,-,sedu00033@schoolapp.edusparrow.com,-,-,-,-,-,-,-,-,-,-,-,-,-,-,-,-,-,-,-,-,-,-,-,Inclass
Peter,edu00063,-,05-06-2010,Male,2016-2017,"Grade - XI",C,Accounts,"L2 French",sedu00063,pedu00063,03-01-2016,-,-,-,-,-,-,-,-,-,-,-,-,-,-,-,-,-,-,-,-,-,-,-,-,-,-,sedu00063@schoolapp.edusparrow.com,-,-,-,-,-,-,-,-,-,-,-,-,-,-,-,-,-,-,-,-,-,-,-,Inclass
Stephen,edu00044,-,02-08-2010,Male,2016-2017,"Grade - XI",B,"Bio Maths","L2 French",sedu00044,pedu00044,04-01-2016,-,-,-,-,-,-,-,-,-,-,-,-,-,-,-,-,-,-,-,-,-,-,-,-,-,-,sedu00044@schoolapp.edusparrow.com,-,-,-,-,-,-,-,-,-,-,-,-,-,-,-,-,-,-,-,-,-,-,-,Inclass
Stephen,edu00014,-,02-08-2010,Male,2016-2017,"Grade - V",A,-,"Language combination 5 (1-2-3)",sedu00014,pedu00014,04-01-2016,-,-,-,-,-,-,-,-,-,-,-,-,-,-,-,-,-,-,-,-,-,-,-,-,-,-,sedu00014@schoolapp.edusparrow.com,-,-,-,-,-,-,-,-,-,-,-,-,-,-,-,-,-,-,-,-,-,-,-,Inclass
Stephen,edu00004,-,02-08-2010,Male,2016-2017,UKG,-,-,"Language combination 2 (1-2)",sedu00004,pedu00004,04-01-2016,-,-,-,-,-,-,-,-,-,-,-,-,-,-,-,-,-,-,-,-,-,-,-,-,-,sedu00004@schoolapp.edusparrow.com,sedu00004@schoolapp.edusparrow.com,-,-,-,-,-,-,-,-,-,-,-,-,-,-,-,-,-,-,-,-,-,-,-,Inclass
Stephen,edu00034,-,02-08-2010,Male,2016-2017,"Grade - XI",A,Comp.Sci,"L2 Tamil",sedu00034,pedu00034,04-01-2016,-,-,-,-,-,-,-,-,-,-,-,-,-,-,-,-,-,-,-,-,-,-,-,-,-,-,sedu00034@schoolapp.edusparrow.com,-,-,-,-,-,-,-,-,-,-,-,-,-,-,-,-,-,-,-,-,-,-,-,Inclass
Stephen,edu00064,-,02-08-2010,Male,2016-2017,"Grade - XI",C,Accounts,"L2 French",sedu00064,pedu00064,04-01-2016,-,-,-,-,-,-,-,-,-,-,-,-,-,-,-,-,-,-,-,-,-,-,-,-,-,-,sedu00064@schoolapp.edusparrow.com,-,-,-,-,-,-,-,-,-,-,-,-,-,-,-,-,-,-,-,-,-,-,-,Inclass
Stephen,edu00024,-,02-08-2010,Male,2016-2017,"Grade - IX",C,-,"Language combination 1 (1-2)",sedu00024,pedu00024,04-01-2016,-,-,-,-,-,-,-,-,-,-,-,-,-,-,-,-,-,-,-,-,-,-,-,-,-,-,sedu00024@schoolapp.edusparrow.com,-,-,-,-,-,-,-,-,-,-,-,-,-,-,-,-,-,-,-,-,-,-,-,Inclass
Stephen,edu00054,-,02-08-2010,Male,2016-2017,"Grade - XI",B,"Bio Med","L2 French",sedu00054,pedu00054,04-01-2016,-,-,-,-,-,-,-,-,-,-,-,-,-,-,-,-,-,-,-,-,-,-,-,-,-,-,sedu00054@schoolapp.edusparrow.com,-,-,-,-,-,-,-,-,-,-,-,-,-,-,-,-,-,-,-,-,-,-,-,Inclass
Taylor,edu00035,-,10-01-2010,Male,2016-2017,"Grade - XI",A,Comp.Sci,"L2 Tamil",sedu00035,pedu00035,05-01-2016,-,-,-,-,-,-,-,-,-,-,-,-,-,-,-,-,-,-,-,-,-,-,-,-,-,-,sedu00035@schoolapp.edusparrow.com,-,-,-,-,-,-,-,-,-,-,-,-,-,-,-,-,-,-,-,-,-,-,-,Inclass
Taylor,edu00065,-,10-01-2010,Male,2016-2017,"Grade - XI",C,Accounts,"L2 French",sedu00065,pedu00065,05-01-2016,-,-,-,-,-,-,-,-,-,-,-,-,-,-,-,-,-,-,-,-,-,-,-,-,-,-,sedu00065@schoolapp.edusparrow.com,-,-,-,-,-,-,-,-,-,-,-,-,-,-,-,-,-,-,-,-,-,-,-,Inclass
Taylor,edu00025,-,10-01-2010,Male,2016-2017,"Grade - IX",C,-,"Language combination 1 (1-2)",sedu00025,pedu00025,05-01-2016,-,-,-,-,-,-,-,-,-,-,-,-,-,-,-,-,-,-,-,-,-,-,-,-,-,-,sedu00025@schoolapp.edusparrow.com,-,-,-,-,-,-,-,-,-,-,-,-,-,-,-,-,-,-,-,-,-,-,-,Inclass
Taylor,edu00055,-,10-01-2010,Male,2016-2017,"Grade - XI",B,"Bio Med","L2 French",sedu00055,pedu00055,05-01-2016,-,-,-,-,-,-,-,-,-,-,-,-,-,-,-,-,-,-,-,-,-,-,-,-,-,-,sedu00055@schoolapp.edusparrow.com,-,-,-,-,-,-,-,-,-,-,-,-,-,-,-,-,-,-,-,-,-,-,-,Inclass
Taylor,edu00045,-,10-01-2010,Male,2016-2017,"Grade - XI",B,"Bio Maths","L2 French",sedu00045,pedu00045,05-01-2016,-,-,-,-,-,-,-,-,-,-,-,-,-,-,-,-,-,-,-,-,-,-,-,-,-,-,sedu00045@schoolapp.edusparrow.com,-,-,-,-,-,-,-,-,-,-,-,-,-,-,-,-,-,-,-,-,-,-,-,Inclass
Taylor,edu00015,-,10-01-2010,Male,2016-2017,"Grade - V",A,-,"Language combination 6 (1-2-3)",sedu00015,pedu00015,05-01-2016,-,-,-,-,-,-,-,-,-,-,-,-,-,-,-,-,-,-,-,-,-,-,-,-,-,-,sedu00015@schoolapp.edusparrow.com,-,-,-,-,-,-,-,-,-,-,-,-,-,-,-,-,-,-,-,-,-,-,-,Inclass
Taylor,edu00005,-,10-01-2010,Male,2016-2017,UKG,-,-,"Language combination 2 (1-2)",sedu00005,pedu00005,05-01-2016,-,-,-,-,-,-,-,-,-,-,-,-,-,-,-,-,-,-,-,-,-,-,-,-,-,sedu00005@schoolapp.edusparrow.com,sedu00005@schoolapp.edusparrow.com,-,-,-,-,-,-,-,-,-,-,-,-,-,-,-,-,-,-,-,-,-,-,-,Inclass
